{
    "dumper": {
        "jet_collection": "tempJets",
        "calibration": {},
        "selection": {
            "minimum_jet_pt": 20000,
            "maximum_jet_absolute_eta": 2.5
        },
        "vertex_collection": "HLT_IDVertex_FS",
        "dl2_configs": [],
        "variables": {
            "file": "fragments/trigger-variables.json",
            "default_mapping": {
                "file": "fragments/default-mapping.json"
            }
        },
        "tracks": [
            {
                "n_to_save": 40,
                "selection": {
                    "file": "fragments/ip3d-loose-track-cuts.json"
                },
                "sort_order": "d0_significance",
                "btagging_link": "btaggingLink",
                "input_name": "BTagTrackToJetAssociator",
                "output_name": "tracks",
                "variables": {
                    "file": "fragments/pflow-track-variables.json"
                },
                "ip_prefix": "btagIp_"
            }
        ],
        "truths": [
            {
                "file": "fragments/overlap-leptons.json"
            }
        ],
        "decorate": {
            "jet_aug": false,
            "btag_jes": true,
            "soft_muon": false,
            "track_sv_info": false
        },
        "btagging_link": "btaggingLink"
    }
}